{
  "categories": {
    "href": "https://api.spotify.com/v1/browse/categories?offset=0&limit=50",
    "items": [
      {
        "href": "https://api.spotify.com/v1/browse/categories/toplists",
        "icons": [
          {
            "height": 275,
            "url": "https://t.scdn.co/media/derived/toplists_11160599e6a04ac5d6f2757f5511778f_0_0_275_275.jpg",
            "width": 275
          }
        ],
        "id": "toplists",
        "name": "Top Lists"
      },
      {
        "href": "https://api.spotify.com/v1/browse/categories/bollywood",
        "icons": [
          {
            "height": null,
            "url": "https://t.scdn.co/images/8a0fabf4d537486e9b5a4623c921f77e.jpeg",
            "width": null
          }
        ],
        "id": "bollywood",
        "name": "Bollywood"
      },
      {
        "href": "https://api.spotify.com/v1/browse/categories/equal",
        "icons": [
          {
            "height": null,
            "url": "https://t.scdn.co/images/084155aeaa724ea1bd393a017d67b709",
            "width": null
          }
        ],
        "id": "equal",
        "name": "EQUAL"
      },
      {
        "href": "https://api.spotify.com/v1/browse/categories/punjabi",
        "icons": [
          {
            "height": null,
            "url": "https://t.scdn.co/images/11e89d14d7844b7eb3d26619cb662a9b.jpeg",
            "width": null
          }
        ],
        "id": "punjabi",
        "name": "Punjabi"
      },
      {
        "href": "https://api.spotify.com/v1/browse/categories/tamil",
        "icons": [
          {
            "height": null,
            "url": "https://t.scdn.co/images/2117dadfdd254825b3fbc52e3652ed56.jpeg",
            "width": null
          }
        ],
        "id": "tamil",
        "name": "Tamil"
      },
      {
        "href": "https://api.spotify.com/v1/browse/categories/telugu",
        "icons": [
          {
            "height": null,
            "url": "https://t.scdn.co/images/96b5132876eb4e818723555ce365cd87.jpeg",
            "width": null
          }
        ],
        "id": "telugu",
        "name": "Telugu"
      },
      {
        "href": "https://api.spotify.com/v1/browse/categories/indie_alt",
        "icons": [
          {
            "height": null,
            "url": "https://t.scdn.co/images/fe06caf056474bc58862591cd60b57fc.jpeg",
            "width": null
          }
        ],
        "id": "indie_alt",
        "name": "Indie"
      },
      {
        "href": "https://api.spotify.com/v1/browse/categories/pop",
        "icons": [
          {
            "height": 274,
            "url": "https://t.scdn.co/media/derived/pop-274x274_447148649685019f5e2a03a39e78ba52_0_0_274_274.jpg",
            "width": 274
          }
        ],
        "id": "pop",
        "name": "Pop"
      },
      {
        "href": "https://api.spotify.com/v1/browse/categories/radar",
        "icons": [
          {
            "height": null,
            "url": "https://t.scdn.co/images/c6677aa51acf4121b66b9d1f231bd427.png",
            "width": null
          }
        ],
        "id": "radar",
        "name": "RADAR"
      },
      {
        "href": "https://api.spotify.com/v1/browse/categories/marathi",
        "icons": [
          {
            "height": null,
            "url": "https://t.scdn.co/images/713254a577a64338a450481329f0d83f.jpeg",
            "width": null
          }
        ],
        "id": "marathi",
        "name": "Marathi"
      },
      {
        "href": "https://api.spotify.com/v1/browse/categories/diwali",
        "icons": [
          {
            "height": null,
            "url": "https://t.scdn.co/images/f2792f4efba9405887f172de966df356.jpeg",
            "width": null
          }
        ],
        "id": "diwali",
        "name": "Diwali"
      },
      {
        "href": "https://api.spotify.com/v1/browse/categories/devotional",
        "icons": [
          {
            "height": null,
            "url": "https://t.scdn.co/images/a1817e719adc4716b8f7a8ccecf64d9b",
            "width": null
          }
        ],
        "id": "devotional",
        "name": "Devotional"
      },
      {
        "href": "https://api.spotify.com/v1/browse/categories/indian_classical",
        "icons": [
          {
            "height": null,
            "url": "https://t.scdn.co/images/0dcbe54ffb604b37b1ae96223f2524be",
            "width": null
          }
        ],
        "id": "indian_classical",
        "name": "Indian Classical"
      },
      {
        "href": "https://api.spotify.com/v1/browse/categories/romance",
        "icons": [
          {
            "height": 274,
            "url": "https://t.scdn.co/media/derived/romance-274x274_8100794c94847b6d27858bed6fa4d91b_0_0_274_274.jpg",
            "width": 274
          }
        ],
        "id": "romance",
        "name": "Romance"
      },
      {
        "href": "https://api.spotify.com/v1/browse/categories/decades",
        "icons": [
          {
            "height": null,
            "url": "https://t.scdn.co/images/b611cf5145764c64b80e91ccd5f357c8",
            "width": null
          }
        ],
        "id": "decades",
        "name": "Decades"
      },
      {
        "href": "https://api.spotify.com/v1/browse/categories/kpop",
        "icons": [
          {
            "height": null,
            "url": "https://t.scdn.co/images/2078afd91e4d431eb19efc5bee5ab131.jpeg",
            "width": null
          }
        ],
        "id": "kpop",
        "name": "K-Pop"
      },
      {
        "href": "https://api.spotify.com/v1/browse/categories/hiphop",
        "icons": [
          {
            "height": 274,
            "url": "https://t.scdn.co/media/original/hip-274_0a661854d61e29eace5fe63f73495e68_274x274.jpg",
            "width": 274
          }
        ],
        "id": "hiphop",
        "name": "Hip Hop"
      },
      {
        "href": "https://api.spotify.com/v1/browse/categories/party",
        "icons": [
          {
            "height": null,
            "url": "https://t.scdn.co/images/7ee6530d5b3c4acc9a0957046bf11d63",
            "width": null
          }
        ],
        "id": "party",
        "name": "Party"
      },
      {
        "href": "https://api.spotify.com/v1/browse/categories/instrumental",
        "icons": [
          {
            "height": null,
            "url": "https://t.scdn.co/images/384c2b595a1648aa801837ff99961188",
            "width": null
          }
        ],
        "id": "instrumental",
        "name": "Instrumental"
      },
      {
        "href": "https://api.spotify.com/v1/browse/categories/edm_dance",
        "icons": [
          {
            "height": 274,
            "url": "https://t.scdn.co/media/derived/edm-274x274_0ef612604200a9c14995432994455a6d_0_0_274_274.jpg",
            "width": 274
          }
        ],
        "id": "edm_dance",
        "name": "Dance/Electronic"
      },
      {
        "href": "https://api.spotify.com/v1/browse/categories/student",
        "icons": [
          {
            "height": null,
            "url": "https://t.scdn.co/images/67a216e1e07144f889d366fed5c325bc.jpeg",
            "width": null
          }
        ],
        "id": "student",
        "name": "Student"
      },
      {
        "href": "https://api.spotify.com/v1/browse/categories/chill",
        "icons": [
          {
            "height": 274,
            "url": "https://t.scdn.co/media/derived/chill-274x274_4c46374f007813dd10b37e8d8fd35b4b_0_0_274_274.jpg",
            "width": 274
          }
        ],
        "id": "chill",
        "name": "Chill"
      },
      {
        "href": "https://api.spotify.com/v1/browse/categories/mood",
        "icons": [
          {
            "height": 274,
            "url": "https://t.scdn.co/media/original/mood-274x274_976986a31ac8c49794cbdc7246fd5ad7_274x274.jpg",
            "width": 274
          }
        ],
        "id": "mood",
        "name": "Mood"
      },
      {
        "href": "https://api.spotify.com/v1/browse/categories/wellness",
        "icons": [
          {
            "height": null,
            "url": "https://t.scdn.co/images/3710b68657574bc79df14bd74629e5ac",
            "width": null
          }
        ],
        "id": "wellness",
        "name": "Wellness"
      },
      {
        "href": "https://api.spotify.com/v1/browse/categories/workout",
        "icons": [
          {
            "height": null,
            "url": "https://t.scdn.co/media/links/workout-274x274.jpg",
            "width": null
          }
        ],
        "id": "workout",
        "name": "Workout"
      },
      {
        "href": "https://api.spotify.com/v1/browse/categories/roots",
        "icons": [
          {
            "height": null,
            "url": "https://t.scdn.co/images/7fe0f2c9c91f45a3b6bae49d298201a4.jpeg",
            "width": null
          }
        ],
        "id": "roots",
        "name": "Folk & Acoustic"
      },
      {
        "href": "https://api.spotify.com/v1/browse/categories/sleep",
        "icons": [
          {
            "height": 274,
            "url": "https://t.scdn.co/media/derived/sleep-274x274_0d4f836af8fab7bf31526968073e671c_0_0_274_274.jpg",
            "width": 274
          }
        ],
        "id": "sleep",
        "name": "Sleep"
      },
      {
        "href": "https://api.spotify.com/v1/browse/categories/kids_family",
        "icons": [
          {
            "height": null,
            "url": "https://t.scdn.co/images/664bb84f7a774e1eadb7c227aed98f3c",
            "width": null
          }
        ],
        "id": "kids_family",
        "name": "Kids & Family"
      },
      {
        "href": "https://api.spotify.com/v1/browse/categories/at_home",
        "icons": [
          {
            "height": null,
            "url": "https://t.scdn.co/images/04da469dd7be4dab96659aa1fa9f0ac9.jpeg",
            "width": null
          }
        ],
        "id": "at_home",
        "name": "At Home"
      },
      {
        "href": "https://api.spotify.com/v1/browse/categories/rnb",
        "icons": [
          {
            "height": 274,
            "url": "https://t.scdn.co/media/derived/r-b-274x274_fd56efa72f4f63764b011b68121581d8_0_0_274_274.jpg",
            "width": 274
          }
        ],
        "id": "rnb",
        "name": "R&B"
      },
      {
        "href": "https://api.spotify.com/v1/browse/categories/thirdparty",
        "icons": [
          {
            "height": null,
            "url": "https://t.scdn.co/images/b4182906bf244b4994805084c057e9ee.jpeg",
            "width": null
          }
        ],
        "id": "thirdparty",
        "name": "Tastemakers"
      },
      {
        "href": "https://api.spotify.com/v1/browse/categories/rock",
        "icons": [
          {
            "height": 274,
            "url": "https://t.scdn.co/media/derived/rock_9ce79e0a4ef901bbd10494f5b855d3cc_0_0_274_274.jpg",
            "width": 274
          }
        ],
        "id": "rock",
        "name": "Rock"
      },
      {
        "href": "https://api.spotify.com/v1/browse/categories/focus",
        "icons": [
          {
            "height": 274,
            "url": "https://t.scdn.co/media/original/genre-images-square-274x274_5e50d72b846a198fcd2ca9b3aef5f0c8_274x274.jpg",
            "width": 274
          }
        ],
        "id": "focus",
        "name": "Focus"
      },
      {
        "href": "https://api.spotify.com/v1/browse/categories/summer",
        "icons": [
          {
            "height": null,
            "url": "https://t.scdn.co/images/8e508d7eb5b843a89c368c9507ecc429.jpeg",
            "width": null
          }
        ],
        "id": "summer",
        "name": "Summer"
      },
      {
        "href": "https://api.spotify.com/v1/browse/categories/dinner",
        "icons": [
          {
            "height": 274,
            "url": "https://t.scdn.co/media/original/dinner_1b6506abba0ba52c54e6d695c8571078_274x274.jpg",
            "width": 274
          }
        ],
        "id": "dinner",
        "name": "Cooking & Dining"
      },
      {
        "href": "https://api.spotify.com/v1/browse/categories/jazz",
        "icons": [
          {
            "height": null,
            "url": "https://t.scdn.co/images/568f37f1cab54136939d63bd1f59d40c",
            "width": null
          }
        ],
        "id": "jazz",
        "name": "Jazz"
      },
      {
        "href": "https://api.spotify.com/v1/browse/categories/aapi_heritage_month",
        "icons": [
          {
            "height": null,
            "url": "https://t.scdn.co/images/9378062ced4e466980de864ee3cc3bf3",
            "width": null
          }
        ],
        "id": "aapi_heritage_month",
        "name": "Stop Asian Hate"
      },
      {
        "href": "https://api.spotify.com/v1/browse/categories/gaming",
        "icons": [
          {
            "height": null,
            "url": "https://t.scdn.co/images/0d39395309ba47838ef12ce987f19d16.jpeg",
            "width": null
          }
        ],
        "id": "gaming",
        "name": "Gaming"
      },
      {
        "href": "https://api.spotify.com/v1/browse/categories/caribbean",
        "icons": [
          {
            "height": null,
            "url": "https://t.scdn.co/images/495fadcefe234607b14b2db3381f3f5d.jpeg",
            "width": null
          }
        ],
        "id": "caribbean",
        "name": "Caribbean"
      },
      {
        "href": "https://api.spotify.com/v1/browse/categories/soul",
        "icons": [
          {
            "height": 274,
            "url": "https://t.scdn.co/media/derived/soul-274x274_266bc900b35dda8956380cffc73a4d8c_0_0_274_274.jpg",
            "width": 274
          }
        ],
        "id": "soul",
        "name": "Soul"
      },
      {
        "href": "https://api.spotify.com/v1/browse/categories/classical",
        "icons": [
          {
            "height": 274,
            "url": "https://t.scdn.co/media/derived/classical-274x274_abf78251ff3d90d2ceaf029253ca7cb4_0_0_274_274.jpg",
            "width": 274
          }
        ],
        "id": "classical",
        "name": "Classical"
      },
      {
        "href": "https://api.spotify.com/v1/browse/categories/latin",
        "icons": [
          {
            "height": null,
            "url": "https://t.scdn.co/images/26a60378-a374-4cd7-b894-28efa5e154cb.jpg",
            "width": null
          }
        ],
        "id": "latin",
        "name": "Latin"
      },
      {
        "href": "https://api.spotify.com/v1/browse/categories/metal",
        "icons": [
          {
            "height": 274,
            "url": "https://t.scdn.co/media/original/metal_27c921443fd0a5ba95b1b2c2ae654b2b_274x274.jpg",
            "width": 274
          }
        ],
        "id": "metal",
        "name": "Metal"
      },
      {
        "href": "https://api.spotify.com/v1/browse/categories/blues",
        "icons": [
          {
            "height": null,
            "url": "https://t.scdn.co/images/6fe5cd3ebc8c4db7bb8013152b153505",
            "width": null
          }
        ],
        "id": "blues",
        "name": "Blues"
      },
      {
        "href": "https://api.spotify.com/v1/browse/categories/funk",
        "icons": [
          {
            "height": null,
            "url": "https://t.scdn.co/images/f4f0987fcab446fcaa7173acb5e25701.jpeg",
            "width": null
          }
        ],
        "id": "funk",
        "name": "Funk"
      },
      {
        "href": "https://api.spotify.com/v1/browse/categories/punk",
        "icons": [
          {
            "height": 274,
            "url": "https://t.scdn.co/media/derived/punk-274x274_f3f1528ea7bbb60a625da13e3315a40b_0_0_274_274.jpg",
            "width": 274
          }
        ],
        "id": "punk",
        "name": "Punk"
      },
      {
        "href": "https://api.spotify.com/v1/browse/categories/travel",
        "icons": [
          {
            "height": 274,
            "url": "https://t.scdn.co/media/derived/travel-274x274_1e89cd5b42cf8bd2ff8fc4fb26f2e955_0_0_274_274.jpg",
            "width": 274
          }
        ],
        "id": "travel",
        "name": "Travel"
      },
      {
        "href": "https://api.spotify.com/v1/browse/categories/country",
        "icons": [
          {
            "height": null,
            "url": "https://t.scdn.co/images/a2e0ebe2ebed4566ba1d8236b869241f.jpeg",
            "width": null
          }
        ],
        "id": "country",
        "name": "Country"
      },
      {
        "href": "https://api.spotify.com/v1/browse/categories/anime",
        "icons": [
          {
            "height": null,
            "url": "https://t.scdn.co/images/54841f7d6a774ef096477c99c23f0cf1.jpeg",
            "width": null
          }
        ],
        "id": "anime",
        "name": "Anime"
      },
      {
        "href": "https://api.spotify.com/v1/browse/categories/ambient",
        "icons": [
          {
            "height": null,
            "url": "https://t.scdn.co/images/9210c5a26e6a4b4da2c3ea8e5f87fff8",
            "width": null
          }
        ],
        "id": "ambient",
        "name": "Ambient"
      }
    ],
    "limit": 50,
    "next": "https://api.spotify.com/v1/browse/categories?offset=50&limit=50",
    "offset": 0,
    "previous": null,
    "total": 54
  }
}
